plots_varying_frequency/F0008CH1.CSV

Record Length,2.500000e+03,,  -0.000213000000,  -0.16000,
Sample Interval,1.000000e-07,,  -0.000212900000,  -0.24000,
Trigger Point,2.130000000000e+03,,  -0.000212800000,  -0.08000,
,,,  -0.000212700000,  -0.24000,
,,,  -0.000212600000,  -0.24000,
,,,  -0.000212500000,  -0.24000,
Source,CH1,,  -0.000212400000,  -0.24000,
Vertical Units,V,,  -0.000212300000,  -0.16000,
Vertical Scale,2.000000e+00,,  -0.000212200000,  -0.16000,
Vertical Offset,1.840000e+00,,  -0.000212100000,  -0.24000,
Horizontal Units,s,,  -0.000212000000,  -0.16000,
Horizontal Scale,2.500000e-05,,  -0.000211900000,  -0.24000,
Pt Fmt,ENV,,  -0.000211800000,  -0.16000,
Yzero,0.000000e+00,,  -0.000211700000,  -0.24000,
Probe Atten,1.000000e+00,,  -0.000211600000,  -0.16000,
Model Number,TDS2024B,,  -0.000211500000,  -0.24000,
Serial Number,C103617,,  -0.000211400000,  -0.16000,
Firmware Version,FV:v22.11,,  -0.000211300000,  -0.24000,
,,,-00.000211200000,  -0.24000,
,,,-00.000211100000,  -0.24000,
,,,-00.000211000000,  -0.24000,
,,,-00.000210900000,  -0.32000,
,,,-00.000210800000,  -0.16000,
,,,-00.000210700000,  -0.24000,
,,,-00.000210600000,  -0.24000,
,,,-00.000210500000,  -0.16000,
,,,-00.000210400000,  -0.08000,
,,,-00.000210300000,  -0.16000,
,,,-00.000210200000,  -0.24000,
,,,-00.000210100000,  -0.16000,
,,,-00.000210000000,  -0.24000,
,,,-00.000209900000,  -0.24000,
,,,-00.000209800000,  -0.16000,
,,,-00.000209700000,  -0.24000,
,,,-00.000209600000,  -0.16000,
,,,-00.000209500000,  -0.24000,
,,,-00.000209400000,  -0.24000,
,,,-00.000209300000,  -0.32000,
,,,-00.000209200000,  -0.16000,
,,,-00.000209100000,  -0.24000,
,,,-00.000209000000,  -0.24000,
,,,-00.000208900000,  -0.24000,
,,,-00.000208800000,  -0.24000,
,,,-00.000208700000,  -0.16000,
,,,-00.000208600000,  -0.16000,
,,,-00.000208500000,  -0.16000,
,,,-00.000208400000,  -0.16000,
,,,-00.000208300000,  -0.16000,
,,,-00.000208200000,  -0.24000,
,,,-00.000208100000,  -0.16000,
,,,-00.000208000000,  -0.16000,
,,,-00.000207900000,  -0.16000,
,,,-00.000207800000,  -0.16000,
,,,-00.000207700000,  -0.16000,
,,,-00.000207600000,  -0.24000,
,,,-00.000207500000,  -0.16000,
,,,-00.000207400000,  -0.16000,
,,,-00.000207300000,  -0.32000,
,,,-00.000207200000,  -0.16000,
,,,-00.000207100000,  -0.24000,
,,,-00.000207000000,  -0.24000,
,,,-00.000206900000,  -0.24000,
,,,-00.000206800000,  -0.16000,
,,,-00.000206700000,  -0.24000,
,,,-00.000206600000,  -0.16000,
,,,-00.000206500000,  -0.24000,
,,,-00.000206400000,  -0.08000,
,,,-00.000206300000,  -0.32000,
,,,-00.000206200000,  -0.16000,
,,,-00.000206100000,  -0.16000,
,,,-00.000206000000,  -0.08000,
,,,-00.000205900000,  -0.32000,
,,,-00.000205800000,  -0.24000,
,,,-00.000205700000,  -0.24000,
,,,-00.000205600000,  -0.08000,
,,,-00.000205500000,  -0.24000,
,,,-00.000205400000,  -0.24000,
,,,-00.000205300000,  -0.24000,
,,,-00.000205200000,  -0.16000,
,,,-00.000205100000,  -0.24000,
,,,-00.000205000000,  -0.16000,
,,,-00.000204900000,  -0.24000,
,,,-00.000204800000,  -0.08000,
,,,-00.000204700000,  -0.24000,
,,,-00.000204600000,  -0.16000,
,,,-00.000204500000,  -0.24000,
,,,-00.000204400000,  -0.16000,
,,,-00.000204300000,  -0.16000,
,,,-00.000204200000,  -0.16000,
,,,-00.000204100000,  -0.24000,
,,,-00.000204000000,  -0.16000,
,,,-00.000203900000,  -0.16000,
,,,-00.000203800000,  -0.16000,
,,,-00.000203700000,  -0.16000,
,,,-00.000203600000,  -0.16000,
,,,-00.000203500000,  -0.16000,
,,,-00.000203400000,  -0.16000,
,,,-00.000203300000,  -0.16000,
,,,-00.000203200000,  -0.16000,
,,,-00.000203100000,  -0.24000,
,,,-00.000203000000,  -0.08000,
,,,-00.000202900000,  -0.16000,
,,,-00.000202800000,  -0.24000,
,,,-00.000202700000,  -0.24000,
,,,-00.000202600000,  -0.08000,
,,,-00.000202500000,  -0.16000,
,,,-00.000202400000,  -0.24000,
,,,-00.000202300000,  -0.16000,
,,,-00.000202200000,  -0.16000,
,,,-00.000202100000,  -0.16000,
,,,-00.000202000000,  -0.16000,
,,,-00.000201900000,  -0.24000,
,,,-00.000201800000,  -0.24000,
,,,-00.000201700000,  -0.16000,
,,,-00.000201600000,  -0.24000,
,,,-00.000201500000,  -0.32000,
,,,-00.000201400000,  -0.16000,
,,,-00.000201300000,  -0.08000,
,,,-00.000201200000,  -0.24000,
,,,-00.000201100000,  -0.24000,
,,,-00.000201000000,  -0.16000,
,,,-00.000200900000,  -0.16000,
,,,-00.000200800000,  -0.24000,
,,,-00.000200700000,  -0.16000,
,,,-00.000200600000,  -0.08000,
,,,-00.000200500000,  -0.16000,
,,,-00.000200400000,  -0.24000,
,,,-00.000200300000,  -0.24000,
,,,-00.000200200000,  -0.16000,
,,,-00.000200100000,  -0.16000,
,,,-00.000200000000,  -0.16000,
,,,-00.000199900000,  -0.16000,
,,,-00.000199800000,  -0.16000,
,,,-00.000199700000,  -0.16000,
,,,-00.000199600000,   0.00000,
,,,-00.000199500000,  -0.16000,
,,,-00.000199400000,  -0.08000,
,,,-00.000199300000,  -0.16000,
,,,-00.000199200000,  -0.16000,
,,,-00.000199100000,   3.20000,
,,,-00.000199000000,   3.44000,
,,,-00.000198900000,   3.68000,
,,,-00.000198800000,   4.56000,
,,,-00.000198700000,   4.48000,
,,,-00.000198600000,   4.48000,
,,,-00.000198500000,   4.40000,
,,,-00.000198400000,   4.40000,
,,,-00.000198300000,   4.56000,
,,,-00.000198200000,   4.64000,
,,,-00.000198100000,   4.48000,
,,,-00.000198000000,   4.56000,
,,,-00.000197900000,   4.56000,
,,,-00.000197800000,   4.48000,
,,,-00.000197700000,   4.40000,
,,,-00.000197600000,   4.64000,
,,,-00.000197500000,   4.56000,
,,,-00.000197400000,   4.56000,
,,,-00.000197300000,   4.56000,
,,,-00.000197200000,   4.48000,
,,,-00.000197100000,   4.48000,
,,,-00.000197000000,   4.56000,
,,,-00.000196900000,   4.56000,
,,,-00.000196800000,   4.56000,
,,,-00.000196700000,   4.56000,
,,,-00.000196600000,   4.56000,
,,,-00.000196500000,   4.56000,
,,,-00.000196400000,   4.64000,
,,,-00.000196300000,   4.48000,
,,,-00.000196200000,   4.56000,
,,,-00.000196100000,   4.56000,
,,,-00.000196000000,   4.56000,
,,,-00.000195900000,   4.64000,
,,,-00.000195800000,   4.64000,
,,,-00.000195700000,   4.56000,
,,,-00.000195600000,   4.56000,
,,,-00.000195500000,   4.48000,
,,,-00.000195400000,   4.56000,
,,,-00.000195300000,   4.48000,
,,,-00.000195200000,   4.72000,
,,,-00.000195100000,   4.64000,
,,,-00.000195000000,   4.56000,
,,,-00.000194900000,   4.64000,
,,,-00.000194800000,   4.56000,
,,,-00.000194700000,   4.64000,
,,,-00.000194600000,   4.64000,
,,,-00.000194500000,   4.56000,
,,,-00.000194400000,   4.56000,
,,,-00.000194300000,   4.56000,
,,,-00.000194200000,   4.56000,
,,,-00.000194100000,   4.56000,
,,,-00.000194000000,   4.72000,
,,,-00.000193900000,   4.48000,
,,,-00.000193800000,   4.56000,
,,,-00.000193700000,   4.64000,
,,,-00.000193600000,   4.64000,
,,,-00.000193500000,   4.56000,
,,,-00.000193400000,   4.56000,
,,,-00.000193300000,   4.48000,
,,,-00.000193200000,   4.56000,
,,,-00.000193100000,   4.72000,
,,,-00.000193000000,   4.64000,
,,,-00.000192900000,   4.64000,
,,,-00.000192800000,   4.64000,
,,,-00.000192700000,   4.56000,
,,,-00.000192600000,   4.64000,
,,,-00.000192500000,   4.56000,
,,,-00.000192400000,   4.64000,
,,,-00.000192300000,   4.64000,
,,,-00.000192200000,   4.56000,
,,,-00.000192100000,   4.56000,
,,,-00.000192000000,   4.56000,
,,,-00.000191900000,   4.64000,
,,,-00.000191800000,   4.56000,
,,,-00.000191700000,   4.56000,
,,,-00.000191600000,   4.56000,
,,,-00.000191500000,   4.64000,
,,,-00.000191400000,   4.56000,
,,,-00.000191300000,   4.56000,
,,,-00.000191200000,   4.64000,
,,,-00.000191100000,   4.56000,
,,,-00.000191000000,   4.72000,
,,,-00.000190900000,   4.64000,
,,,-00.000190800000,   4.56000,
,,,-00.000190700000,   4.48000,
,,,-00.000190600000,   4.56000,
,,,-00.000190500000,   4.64000,
,,,-00.000190400000,   4.72000,
,,,-00.000190300000,   4.56000,
,,,-00.000190200000,   4.56000,
,,,-00.000190100000,   4.56000,
,,,-00.000190000000,   4.64000,
,,,-00.000189900000,   4.56000,
,,,-00.000189800000,   4.72000,
,,,-00.000189700000,   4.64000,
,,,-00.000189600000,   4.64000,
,,,-00.000189500000,   4.64000,
,,,-00.000189400000,   4.56000,
,,,-00.000189300000,   4.64000,
,,,-00.000189200000,   4.64000,
,,,-00.000189100000,   4.56000,
,,,-00.000189000000,   4.64000,
,,,-00.000188900000,   4.56000,
,,,-00.000188800000,   4.64000,
,,,-00.000188700000,   4.64000,
,,,-00.000188600000,   4.56000,
,,,-00.000188500000,   4.56000,
,,,-00.000188400000,   4.72000,
,,,-00.000188300000,   4.56000,
,,,-00.000188200000,   4.64000,
,,,-00.000188100000,   4.64000,
,,,-00.000188000000,   4.64000,
,,,-00.000187900000,   4.64000,
,,,-00.000187800000,   4.64000,
,,,-00.000187700000,   4.64000,
,,,-00.000187600000,   4.56000,
,,,-00.000187500000,   4.64000,
,,,-00.000187400000,   4.64000,
,,,-00.000187300000,   4.64000,
,,,-00.000187200000,   4.72000,
,,,-00.000187100000,   4.64000,
,,,-00.000187000000,   4.56000,
,,,-00.000186900000,   4.64000,
,,,-00.000186800000,   4.72000,
,,,-00.000186700000,   4.56000,
,,,-00.000186600000,   4.72000,
,,,-00.000186500000,   4.64000,
,,,-00.000186400000,   4.64000,
,,,-00.000186300000,   4.64000,
,,,-00.000186200000,   4.64000,
,,,-00.000186100000,   4.64000,
,,,-00.000186000000,   4.64000,
,,,-00.000185900000,   4.56000,
,,,-00.000185800000,   4.64000,
,,,-00.000185700000,   4.56000,
,,,-00.000185600000,   4.72000,
,,,-00.000185500000,   4.64000,
,,,-00.000185400000,   4.48000,
,,,-00.000185300000,   4.56000,
,,,-00.000185200000,   4.64000,
,,,-00.000185100000,   4.64000,
,,,-00.000185000000,   4.72000,
,,,-00.000184900000,   4.64000,
,,,-00.000184800000,   4.56000,
,,,-00.000184700000,   4.56000,
,,,-00.000184600000,   4.56000,
,,,-00.000184500000,   4.64000,
,,,-00.000184400000,   4.64000,
,,,-00.000184300000,   4.56000,
,,,-00.000184200000,   4.72000,
,,,-00.000184100000,   4.64000,
,,,-00.000184000000,   4.64000,
,,,-00.000183900000,   4.48000,
,,,-00.000183800000,   4.64000,
,,,-00.000183700000,   4.64000,
,,,-00.000183600000,   4.64000,
,,,-00.000183500000,   4.48000,
,,,-00.000183400000,   4.72000,
,,,-00.000183300000,   4.56000,
,,,-00.000183200000,   4.64000,
,,,-00.000183100000,   4.56000,
,,,-00.000183000000,   4.72000,
,,,-00.000182900000,   4.64000,
,,,-00.000182800000,   4.64000,
,,,-00.000182700000,   4.56000,
,,,-00.000182600000,   4.72000,
,,,-00.000182500000,   4.64000,
,,,-00.000182400000,   4.56000,
,,,-00.000182300000,   4.56000,
,,,-00.000182200000,   4.64000,
,,,-00.000182100000,   4.56000,
,,,-00.000182000000,   4.56000,
,,,-00.000181900000,   4.64000,
,,,-00.000181800000,   4.64000,
,,,-00.000181700000,   4.64000,
,,,-00.000181600000,   4.56000,
,,,-00.000181500000,   4.64000,
,,,-00.000181400000,   4.72000,
,,,-00.000181300000,   4.56000,
,,,-00.000181200000,   4.72000,
,,,-00.000181100000,   4.72000,
,,,-00.000181000000,   4.72000,
,,,-00.000180900000,   4.64000,
,,,-00.000180800000,   4.64000,
,,,-00.000180700000,   4.56000,
,,,-00.000180600000,   4.56000,
,,,-00.000180500000,   4.64000,
,,,-00.000180400000,   4.64000,
,,,-00.000180300000,   4.56000,
,,,-00.000180200000,   4.72000,
,,,-00.000180100000,   4.64000,
,,,-00.000180000000,   4.72000,
,,,-00.000179900000,   4.56000,
,,,-00.000179800000,   4.56000,
,,,-00.000179700000,   4.64000,
,,,-00.000179600000,   4.72000,
,,,-00.000179500000,   4.64000,
,,,-00.000179400000,   4.64000,
,,,-00.000179300000,   4.56000,
,,,-00.000179200000,   4.56000,
,,,-00.000179100000,   4.64000,
,,,-00.000179000000,   4.72000,
,,,-00.000178900000,   4.64000,
,,,-00.000178800000,   4.64000,
,,,-00.000178700000,   4.64000,
,,,-00.000178600000,   4.64000,
,,,-00.000178500000,   4.64000,
,,,-00.000178400000,   4.72000,
,,,-00.000178300000,   4.56000,
,,,-00.000178200000,   4.72000,
,,,-00.000178100000,   4.64000,
,,,-00.000178000000,   4.64000,
,,,-00.000177900000,   4.64000,
,,,-00.000177800000,   4.64000,
,,,-00.000177700000,   4.80000,
,,,-00.000177600000,   4.72000,
,,,-00.000177500000,   4.64000,
,,,-00.000177400000,   4.64000,
,,,-00.000177300000,   4.64000,
,,,-00.000177200000,   4.72000,
,,,-00.000177100000,   4.64000,
,,,-00.000177000000,   4.64000,
,,,-00.000176900000,   4.56000,
,,,-00.000176800000,   4.56000,
,,,-00.000176700000,   4.56000,
,,,-00.000176600000,   4.72000,
,,,-00.000176500000,   4.48000,
,,,-00.000176400000,   4.72000,
,,,-00.000176300000,   4.64000,
,,,-00.000176200000,   4.56000,
,,,-00.000176100000,   4.64000,
,,,-00.000176000000,   4.72000,
,,,-00.000175900000,   4.64000,
,,,-00.000175800000,   4.56000,
,,,-00.000175700000,   4.56000,
,,,-00.000175600000,   4.64000,
,,,-00.000175500000,   4.64000,
,,,-00.000175400000,   4.64000,
,,,-00.000175300000,   4.72000,
,,,-00.000175200000,   4.72000,
,,,-00.000175100000,   4.56000,
,,,-00.000175000000,   4.64000,
,,,-00.000174900000,   4.56000,
,,,-00.000174800000,   4.72000,
,,,-00.000174700000,   4.64000,
,,,-00.000174600000,   4.56000,
,,,-00.000174500000,   4.48000,
,,,-00.000174400000,   4.56000,
,,,-00.000174300000,   4.64000,
,,,-00.000174200000,   4.72000,
,,,-00.000174100000,   4.56000,
,,,-00.000174000000,   4.64000,
,,,-00.000173900000,   4.56000,
,,,-00.000173800000,   4.56000,
,,,-00.000173700000,   4.64000,
,,,-00.000173600000,   4.72000,
,,,-00.000173500000,   4.72000,
,,,-00.000173400000,   4.64000,
,,,-00.000173300000,   4.64000,
,,,-00.000173200000,   4.64000,
,,,-00.000173100000,   4.64000,
,,,-00.000173000000,   4.64000,
,,,-00.000172900000,   4.64000,
,,,-00.000172800000,   4.64000,
,,,-00.000172700000,   4.72000,
,,,-00.000172600000,   4.64000,
,,,-00.000172500000,   4.56000,
,,,-00.000172400000,   4.72000,
,,,-00.000172300000,   4.64000,
,,,-00.000172200000,   4.64000,
,,,-00.000172100000,   4.56000,
,,,-00.000172000000,   4.72000,
,,,-00.000171900000,   4.56000,
,,,-00.000171800000,   4.56000,
,,,-00.000171700000,   4.64000,
,,,-00.000171600000,   4.64000,
,,,-00.000171500000,   4.64000,
,,,-00.000171400000,   4.72000,
,,,-00.000171300000,   4.64000,
,,,-00.000171200000,   4.64000,
,,,-00.000171100000,   4.64000,
,,,-00.000171000000,   4.56000,
,,,-00.000170900000,   4.64000,
,,,-00.000170800000,   4.64000,
,,,-00.000170700000,   4.64000,
,,,-00.000170600000,   4.64000,
,,,-00.000170500000,   4.64000,
,,,-00.000170400000,   4.64000,
,,,-00.000170300000,   4.56000,
,,,-00.000170200000,   4.64000,
,,,-00.000170100000,   4.72000,
,,,-00.000170000000,   4.72000,
,,,-00.000169900000,   4.72000,
,,,-00.000169800000,   4.64000,
,,,-00.000169700000,   4.64000,
,,,-00.000169600000,   4.64000,
,,,-00.000169500000,   4.64000,
,,,-00.000169400000,   4.72000,
,,,-00.000169300000,   4.72000,
,,,-00.000169200000,   4.64000,
,,,-00.000169100000,   4.56000,
,,,-00.000169000000,   4.72000,
,,,-00.000168900000,   4.72000,
,,,-00.000168800000,   4.64000,
,,,-00.000168700000,   4.56000,
,,,-00.000168600000,   4.64000,
,,,-00.000168500000,   4.72000,
,,,-00.000168400000,   4.64000,
,,,-00.000168300000,   4.72000,
,,,-00.000168200000,   4.72000,
,,,-00.000168100000,   4.64000,
,,,-00.000168000000,   4.64000,
,,,-00.000167900000,   4.64000,
,,,-00.000167800000,   4.80000,
,,,-00.000167700000,   4.64000,
,,,-00.000167600000,   4.72000,
,,,-00.000167500000,   4.56000,
,,,-00.000167400000,   4.64000,
,,,-00.000167300000,   4.64000,
,,,-00.000167200000,   4.72000,
,,,-00.000167100000,   4.64000,
,,,-00.000167000000,   4.64000,
,,,-00.000166900000,   4.56000,
,,,-00.000166800000,   4.72000,
,,,-00.000166700000,   4.64000,
,,,-00.000166600000,   4.56000,
,,,-00.000166500000,   4.64000,
,,,-00.000166400000,   4.64000,
,,,-00.000166300000,   4.64000,
,,,-00.000166200000,   4.64000,
,,,-00.000166100000,   4.64000,
,,,-00.000166000000,   4.64000,
,,,-00.000165900000,   4.56000,
,,,-00.000165800000,   4.80000,
,,,-00.000165700000,   4.64000,
,,,-00.000165600000,   4.64000,
,,,-00.000165500000,   4.56000,
,,,-00.000165400000,   4.72000,
,,,-00.000165300000,   4.64000,
,,,-00.000165200000,   4.72000,
,,,-00.000165100000,   4.56000,
,,,-00.000165000000,   4.56000,
,,,-00.000164900000,   4.56000,
,,,-00.000164800000,   4.56000,
,,,-00.000164700000,   4.56000,
,,,-00.000164600000,   4.64000,
,,,-00.000164500000,   4.56000,
,,,-00.000164400000,   4.64000,
,,,-00.000164300000,   4.72000,
,,,-00.000164200000,   4.72000,
,,,-00.000164100000,   4.56000,
,,,-00.000164000000,   4.64000,
,,,-00.000163900000,   4.64000,
,,,-00.000163800000,   4.64000,
,,,-00.000163700000,   4.64000,
,,,-00.000163600000,   4.72000,
,,,-00.000163500000,   4.56000,
,,,-00.000163400000,   4.64000,
,,,-00.000163300000,   4.64000,
,,,-00.000163200000,   4.64000,
,,,-00.000163100000,   4.64000,
,,,-00.000163000000,   4.64000,
,,,-00.000162900000,   4.64000,
,,,-00.000162800000,   4.64000,
,,,-00.000162700000,   4.56000,
,,,-00.000162600000,   4.64000,
,,,-00.000162500000,   4.64000,
,,,-00.000162400000,   4.72000,
,,,-00.000162300000,   4.56000,
,,,-00.000162200000,   4.64000,
,,,-00.000162100000,   4.64000,
,,,-00.000162000000,   4.64000,
,,,-00.000161900000,   4.48000,
,,,-00.000161800000,   4.64000,
,,,-00.000161700000,   4.64000,
,,,-00.000161600000,   4.64000,
,,,-00.000161500000,   4.64000,
,,,-00.000161400000,   4.64000,
,,,-00.000161300000,   4.56000,
,,,-00.000161200000,   4.56000,
,,,-00.000161100000,   4.64000,
,,,-00.000161000000,   4.72000,
,,,-00.000160900000,   4.56000,
,,,-00.000160800000,   4.56000,
,,,-00.000160700000,   4.64000,
,,,-00.000160600000,   4.64000,
,,,-00.000160500000,   4.64000,
,,,-00.000160400000,   4.64000,
,,,-00.000160300000,   4.64000,
,,,-00.000160200000,   4.56000,
,,,-00.000160100000,   4.48000,
,,,-00.000160000000,   4.56000,
,,,-00.000159900000,   4.64000,
,,,-00.000159800000,   4.72000,
,,,-00.000159700000,   4.56000,
,,,-00.000159600000,   4.64000,
,,,-00.000159500000,   4.64000,
,,,-00.000159400000,   4.64000,
,,,-00.000159300000,   4.56000,
,,,-00.000159200000,   4.72000,
,,,-00.000159100000,   4.64000,
,,,-00.000159000000,   4.56000,
,,,-00.000158900000,   4.64000,
,,,-00.000158800000,   4.64000,
,,,-00.000158700000,   4.56000,
,,,-00.000158600000,   4.64000,
,,,-00.000158500000,   4.64000,
,,,-00.000158400000,   4.72000,
,,,-00.000158300000,   4.56000,
,,,-00.000158200000,   4.64000,
,,,-00.000158100000,   4.64000,
,,,-00.000158000000,   4.72000,
,,,-00.000157900000,   4.72000,
,,,-00.000157800000,   4.64000,
,,,-00.000157700000,   4.64000,
,,,-00.000157600000,   4.64000,
,,,-00.000157500000,   4.64000,
,,,-00.000157400000,   4.72000,
,,,-00.000157300000,   4.64000,
,,,-00.000157200000,   4.72000,
,,,-00.000157100000,   4.56000,
,,,-00.000157000000,   4.56000,
,,,-00.000156900000,   4.56000,
,,,-00.000156800000,   4.64000,
,,,-00.000156700000,   4.64000,
,,,-00.000156600000,   4.64000,
,,,-00.000156500000,   4.56000,
,,,-00.000156400000,   4.72000,
,,,-00.000156300000,   4.64000,
,,,-00.000156200000,   4.64000,
,,,-00.000156100000,   4.72000,
,,,-00.000156000000,   4.64000,
,,,-00.000155900000,   4.56000,
,,,-00.000155800000,   4.64000,
,,,-00.000155700000,   4.56000,
,,,-00.000155600000,   4.64000,
,,,-00.000155500000,   4.64000,
,,,-00.000155400000,   4.56000,
,,,-00.000155300000,   4.56000,
,,,-00.000155200000,   4.64000,
,,,-00.000155100000,   4.64000,
,,,-00.000155000000,   4.72000,
,,,-00.000154900000,   4.56000,
,,,-00.000154800000,   4.64000,
,,,-00.000154700000,   4.56000,
,,,-00.000154600000,   4.64000,
,,,-00.000154500000,   4.56000,
,,,-00.000154400000,   4.72000,
,,,-00.000154300000,   4.56000,
,,,-00.000154200000,   4.64000,
,,,-00.000154100000,   4.56000,
,,,-00.000154000000,   4.64000,
,,,-00.000153900000,   4.56000,
,,,-00.000153800000,   4.64000,
,,,-00.000153700000,   4.64000,
,,,-00.000153600000,   4.56000,
,,,-00.000153500000,   4.64000,
,,,-00.000153400000,   4.64000,
,,,-00.000153300000,   4.64000,
,,,-00.000153200000,   4.64000,
,,,-00.000153100000,   4.64000,
,,,-00.000153000000,   4.56000,
,,,-00.000152900000,   4.56000,
,,,-00.000152800000,   4.72000,
,,,-00.000152700000,   4.56000,
,,,-00.000152600000,   4.56000,
,,,-00.000152500000,   4.56000,
,,,-00.000152400000,   4.64000,
,,,-00.000152300000,   4.56000,
,,,-00.000152200000,   4.64000,
,,,-00.000152100000,   4.64000,
,,,-00.000152000000,   4.64000,
,,,-00.000151900000,   4.64000,
,,,-00.000151800000,   4.56000,
,,,-00.000151700000,   4.56000,
